0.050000000745058,0,0,0,0,0,0
0.10000000149012,0.00039577484130859,0,0,0,0,0
0.20000000298023,0.0048489570617676,0,0,0,0,0
0.30000001192093,0.01806116104126,7.1525573730469e-07,0,0,0,0
0.40000000596046,0.045773506164551,1.6689300537109e-06,0,4.7683715820313e-07,0,0
0.5,0.093727111816406,3.0994415283203e-06,0,1.1920928955078e-06,0,0
0.60000002384186,0.16766428947449,4.5299530029297e-06,0,1.9073486328125e-06,0,0
0.69999998807907,0.27332592010498,5.9604644775391e-06,0,2.6226043701172e-06,0,0
0.75,0.33986592292786,7.3909759521484e-06,0,3.3378601074219e-06,0,0
0.80000001192093,0.41684722900391,8.3446502685547e-06,0,3.3378601074219e-06,0,0
0.85000002384186,0.50498652458191,8.8214874267578e-06,0,3.3378601074219e-06,0,0
0.89999997615814,0.60500121116638,9.0599060058594e-06,0,3.3378601074219e-06,0,0
0.94999998807907,0.71760869026184,9.0599060058594e-06,0,3.3378601074219e-06,-2.3841857910156e-07,0
1,0.84352374076843,9.0599060058594e-06,0,3.3378601074219e-06,0,-2.3841857910156e-07
1.0499999523163,0.98346304893494,9.0599060058594e-06,0,3.3378601074219e-06,-4.7683715820313e-07,0
1.1000000238419,1.1381402015686,9.0599060058594e-06,0,3.3378601074219e-06,-2.3841857910156e-07,0
1.2000000476837,1.4941711425781,9.0599060058594e-06,0,3.3378601074219e-06,0,2.3841857910156e-07
1.2999999523163,1.9162859916687,1.0013580322266e-05,0,3.814697265625e-06,7.1525573730469e-07,2.3841857910156e-07
1.3500000238419,2.1539235115051,1.1444091796875e-05,0,4.5299530029297e-06,7.1525573730469e-07,2.3841857910156e-07
1.3999999761581,2.4105708599091,1.2636184692383e-05,0,4.7683715820313e-06,1.1920928955078e-06,4.7683715820313e-07
1.4500000476837,2.6869361400604,1.3589859008789e-05,0,4.7683715820313e-06,9.5367431640625e-07,4.7683715820313e-07
1.5,2.9837260246277,1.4543533325195e-05,0,4.7683715820313e-06,9.5367431640625e-07,4.7683715820313e-07
1.5499999523163,3.3016438484192,1.52587890625e-05,0,4.7683715820313e-06,9.5367431640625e-07,4.7683715820313e-07
1.6000000238419,3.6413915157318,1.6212463378906e-05,0,4.7683715820313e-06,9.5367431640625e-07,4.7683715820313e-07
1.6499999761581,4.0036668777466,1.7166137695313e-05,0,4.7683715820313e-06,1.1920928955078e-06,7.1525573730469e-07
1.7000000476837,4.3891630172729,1.8119812011719e-05,0,4.7683715820313e-06,9.5367431640625e-07,7.1525573730469e-07
1.75,4.7985754013062,1.9311904907227e-05,0,4.7683715820313e-06,7.1525573730469e-07,4.7683715820313e-07
1.7999999523163,5.2325887680054,2.0503997802734e-05,0,4.7683715820313e-06,1.4305114746094e-06,4.7683715820313e-07
1.8500000238419,5.6918859481812,2.1934509277344e-05,0,5.2452087402344e-06,1.6689300537109e-06,7.1525573730469e-07
1.8999999761581,6.1771450042725,2.4318695068359e-05,0,6.1988830566406e-06,1.6689300537109e-06,7.1525573730469e-07
1.9500000476837,6.6771230697632,1.0251998901367e-05,0,-5.9604644775391e-06,1.6689300537109e-06,7.1525573730469e-07
2,7.1771249771118,0,0,-1.4543533325195e-05,1.9073486328125e-06,7.1525573730469e-07
2.0499999523163,7.6771264076233,-5.4836273193359e-06,0,-1.9311904907227e-05,2.1457672119141e-06,7.1525573730469e-07
2.0999999046326,8.1771278381348,-8.1062316894531e-06,0,-2.1696090698242e-05,2.3841857910156e-06,9.5367431640625e-07
2.1500000953674,8.6771297454834,-1.0251998901367e-05,0,-2.3126602172852e-05,2.3841857910156e-06,9.5367431640625e-07
2.2000000476837,9.177131652832,-1.0251998901367e-05,0,-2.3126602172852e-05,2.1457672119141e-06,9.5367431640625e-07
2.25,9.6771326065063,-1.0251998901367e-05,0,-2.3126602172852e-05,2.1457672119141e-06,9.5367431640625e-07
2.2999999523163,10.177134513855,-1.0251998901367e-05,0,-2.3126602172852e-05,2.1457672119141e-06,9.5367431640625e-07
2.3499999046326,10.677136421204,-1.0251998901367e-05,0,-2.3126602172852e-05,2.3841857910156e-06,1.6689300537109e-06
2.4000000953674,11.177138328552,-1.0251998901367e-05,0,-2.3126602172852e-05,2.3841857910156e-06,1.9073486328125e-06
2.4500000476837,11.677140235901,-1.0251998901367e-05,0,-2.3126602172852e-05,2.3841857910156e-06,1.1920928955078e-06
2.5,12.17714214325,-1.0251998901367e-05,0,-2.3126602172852e-05,2.3841857910156e-06,9.5367431640625e-07
2.5499999523163,12.677144050598,-1.0251998901367e-05,0,-2.3126602172852e-05,2.3841857910156e-06,9.5367431640625e-07
2.5999999046326,13.177145957947,-1.0251998901367e-05,0,-2.3126602172852e-05,2.1457672119141e-06,9.5367431640625e-07
2.6500000953674,13.677147865295,-1.0251998901367e-05,0,-2.3126602172852e-05,2.1457672119141e-06,1.4305114746094e-06
2.7000000476837,14.177149772644,-1.0251998901367e-05,0,-2.3126602172852e-05,2.3841857910156e-06,1.6689300537109e-06
2.75,14.677150726318,-1.0251998901367e-05,0,-2.3126602172852e-05,1.9073486328125e-06,1.9073486328125e-06
2.7999999523163,15.177152633667,-1.0251998901367e-05,0,-2.3126602172852e-05,1.6689300537109e-06,1.9073486328125e-06
2.8499999046326,15.677154541016,-1.0251998901367e-05,0,-2.3126602172852e-05,1.6689300537109e-06,1.6689300537109e-06
2.9000000953674,16.177154541016,-1.0251998901367e-05,0,-2.3126602172852e-05,1.6689300537109e-06,1.6689300537109e-06
2.9500000476837,16.677146911621,-1.0251998901367e-05,0,-2.3126602172852e-05,1.9073486328125e-06,1.6689300537109e-06
3,17.177139282227,-1.0251998901367e-05,0,-2.3126602172852e-05,1.1920928955078e-06,1.6689300537109e-06
3.0499999523163,17.677131652832,-1.0251998901367e-05,0,-2.3126602172852e-05,9.5367431640625e-07,1.9073486328125e-06
3.0999999046326,18.177124023438,-1.0251998901367e-05,0,-2.3126602172852e-05,9.5367431640625e-07,1.9073486328125e-06
3.1500000953674,18.677116394043,-1.0251998901367e-05,0,-2.3126602172852e-05,9.5367431640625e-07,1.9073486328125e-06
3.2000000476837,19.177108764648,-1.0251998901367e-05,0,-2.3126602172852e-05,9.5367431640625e-07,1.9073486328125e-06
3.25,19.677101135254,-1.0251998901367e-05,0,-2.3126602172852e-05,1.1920928955078e-06,1.9073486328125e-06
3.2999999523163,20.177093505859,-1.0251998901367e-05,0,-2.3126602172852e-05,1.1920928955078e-06,1.6689300537109e-06
3.3499999046326,20.677085876465,-1.0251998901367e-05,0,-2.3126602172852e-05,1.1920928955078e-06,1.6689300537109e-06
3.4000000953674,21.17707824707,-1.0251998901367e-05,0,-2.3126602172852e-05,1.4305114746094e-06,1.9073486328125e-06
3.4500000476837,21.677070617676,-1.0251998901367e-05,0,-2.3126602172852e-05,1.4305114746094e-06,1.9073486328125e-06
3.5,22.17706489563,-1.0251998901367e-05,0,-2.3126602172852e-05,1.4305114746094e-06,1.9073486328125e-06
3.5499999523163,22.677059173584,-1.0251998901367e-05,0,-2.3126602172852e-05,1.4305114746094e-06,1.9073486328125e-06
3.5999999046326,23.177051544189,-1.0251998901367e-05,0,-2.3126602172852e-05,1.4305114746094e-06,1.1920928955078e-06
3.6500000953674,23.677043914795,-1.0251998901367e-05,0,-2.3126602172852e-05,4.7683715820313e-07,9.5367431640625e-07
3.7000000476837,24.1770362854,-1.0251998901367e-05,0,-2.3126602172852e-05,0,1.1920928955078e-06
3.75,24.677028656006,-1.0251998901367e-05,0,-2.3126602172852e-05,0,1.4305114746094e-06
3.7999999523163,25.177021026611,-1.0251998901367e-05,0,-2.3126602172852e-05,2.3841857910156e-07,1.4305114746094e-06
3.8499999046326,25.677013397217,-1.0251998901367e-05,0,-2.3126602172852e-05,2.3841857910156e-07,1.4305114746094e-06
3.9000000953674,26.177005767822,-1.0251998901367e-05,0,-2.3126602172852e-05,0,1.4305114746094e-06
3.9500000476837,26.676998138428,-1.0251998901367e-05,0,-2.3126602172852e-05,-2.3841857910156e-07,1.6689300537109e-06
4,27.176990509033,-1.0251998901367e-05,0,-2.3126602172852e-05,-4.7683715820313e-07,1.6689300537109e-06
4.0500001907349,27.676982879639,-1.0251998901367e-05,0,-2.3126602172852e-05,0,1.9073486328125e-06
4.0999999046326,28.176975250244,-1.0251998901367e-05,0,-2.3126602172852e-05,2.3841857910156e-07,1.9073486328125e-06
4.1500000953674,28.67696762085,-1.0251998901367e-05,0,-2.3126602172852e-05,2.3841857910156e-07,1.9073486328125e-06
4.1999998092651,29.176959991455,-1.0251998901367e-05,0,-2.3126602172852e-05,7.1525573730469e-07,1.9073486328125e-06
4.25,29.676956176758,-1.0251998901367e-05,0,-2.3126602172852e-05,7.1525573730469e-07,1.9073486328125e-06
4.3000001907349,30.176948547363,-1.0251998901367e-05,0,-2.3126602172852e-05,7.1525573730469e-07,2.3841857910156e-06
4.3499999046326,30.676940917969,-1.0251998901367e-05,0,-2.3126602172852e-05,7.1525573730469e-07,2.6226043701172e-06
4.4000000953674,31.176933288574,-1.0251998901367e-05,0,-2.3126602172852e-05,7.1525573730469e-07,2.6226043701172e-06
4.4499998092651,31.67692565918,-1.0251998901367e-05,0,-2.3126602172852e-05,7.1525573730469e-07,2.6226043701172e-06
4.5,32.176918029785,-1.0251998901367e-05,0,-2.3126602172852e-05,7.1525573730469e-07,2.6226043701172e-06
4.5500001907349,32.676910400391,-1.0251998901367e-05,0,-2.3126602172852e-05,7.1525573730469e-07,3.0994415283203e-06
4.5999999046326,33.176902770996,-1.0251998901367e-05,0,-2.3126602172852e-05,1.1920928955078e-06,3.3378601074219e-06
4.6500000953674,33.676895141602,-1.0251998901367e-05,0,-2.3126602172852e-05,2.3841857910156e-07,3.3378601074219e-06
4.6999998092651,34.176887512207,-1.0251998901367e-05,0,-2.3126602172852e-05,4.7683715820313e-07,3.0994415283203e-06
4.75,34.676879882813,-1.0251998901367e-05,0,-2.3126602172852e-05,4.7683715820313e-07,3.0994415283203e-06
4.8000001907349,35.176872253418,-1.0251998901367e-05,0,-2.3126602172852e-05,7.1525573730469e-07,3.0994415283203e-06
4.8499999046326,35.676864624023,-1.0251998901367e-05,0,-2.3126602172852e-05,1.4305114746094e-06,3.3378601074219e-06
4.9000000953674,36.176856994629,-1.0251998901367e-05,0,-2.3126602172852e-05,1.4305114746094e-06,3.0994415283203e-06
4.9499998092651,36.676849365234,-1.0251998901367e-05,0,-2.3126602172852e-05,1.4305114746094e-06,3.0994415283203e-06
5,37.17684173584,-1.0251998901367e-05,0,-2.3126602172852e-05,1.4305114746094e-06,3.0994415283203e-06
5.0500001907349,37.676834106445,-1.0251998901367e-05,0,-2.3126602172852e-05,1.4305114746094e-06,3.0994415283203e-06
5.0999999046326,38.176826477051,-1.0251998901367e-05,0,-2.3126602172852e-05,1.4305114746094e-06,3.0994415283203e-06
5.1500000953674,38.676818847656,-1.0251998901367e-05,0,-2.3126602172852e-05,1.4305114746094e-06,3.0994415283203e-06
5.1999998092651,39.176811218262,-1.0251998901367e-05,0,-2.3126602172852e-05,1.4305114746094e-06,3.0994415283203e-06
5.25,39.676803588867,-1.0251998901367e-05,0,-2.3126602172852e-05,1.4305114746094e-06,3.0994415283203e-06
5.3000001907349,40.176795959473,-1.0251998901367e-05,0,-2.3126602172852e-05,1.6689300537109e-06,3.3378601074219e-06
5.3499999046326,40.676788330078,-1.0251998901367e-05,0,-2.3126602172852e-05,1.6689300537109e-06,3.3378601074219e-06
5.4000000953674,41.176780700684,-1.0251998901367e-05,0,-2.3126602172852e-05,1.6689300537109e-06,3.3378601074219e-06
5.4499998092651,41.676773071289,-1.0251998901367e-05,0,-2.3126602172852e-05,1.6689300537109e-06,3.3378601074219e-06
5.5,42.176765441895,-1.0251998901367e-05,0,-2.3126602172852e-05,1.9073486328125e-06,3.0994415283203e-06
5.5500001907349,42.6767578125,-1.0251998901367e-05,0,-2.3126602172852e-05,1.9073486328125e-06,2.8610229492188e-06
5.5999999046326,43.176750183105,-1.0251998901367e-05,0,-2.3126602172852e-05,1.9073486328125e-06,2.6226043701172e-06
5.6500000953674,43.676742553711,-1.0251998901367e-05,0,-2.3126602172852e-05,1.9073486328125e-06,2.6226043701172e-06
5.6999998092651,44.176734924316,-1.0251998901367e-05,0,-2.3126602172852e-05,1.9073486328125e-06,2.6226043701172e-06
5.75,44.676727294922,-1.0251998901367e-05,0,-2.3126602172852e-05,1.6689300537109e-06,2.6226043701172e-06
5.8000001907349,45.176719665527,-1.0251998901367e-05,0,-2.3126602172852e-05,1.6689300537109e-06,2.3841857910156e-06
5.8499999046326,45.676712036133,-1.0251998901367e-05,0,-2.3126602172852e-05,1.6689300537109e-06,2.8610229492188e-06
5.9000000953674,46.176704406738,-1.0251998901367e-05,0,-2.3126602172852e-05,7.1525573730469e-07,2.8610229492188e-06
5.9499998092651,46.676696777344,-1.0251998901367e-05,0,-2.3126602172852e-05,1.1920928955078e-06,2.3841857910156e-06
6,47.176689147949,-1.0251998901367e-05,0,-2.3126602172852e-05,1.1920928955078e-06,2.3841857910156e-06
6.0500001907349,47.676681518555,-1.0251998901367e-05,0,-2.3126602172852e-05,1.1920928955078e-06,2.3841857910156e-06
6.0999999046326,48.17667388916,-1.0251998901367e-05,0,-2.3126602172852e-05,1.6689300537109e-06,2.3841857910156e-06
6.1500000953674,48.676666259766,-1.0251998901367e-05,0,-2.3126602172852e-05,1.9073486328125e-06,2.1457672119141e-06
6.1999998092651,49.176658630371,-1.0251998901367e-05,0,-2.3126602172852e-05,1.9073486328125e-06,2.1457672119141e-06
6.25,49.676651000977,-1.0251998901367e-05,0,-2.3126602172852e-05,1.9073486328125e-06,2.1457672119141e-06
6.3000001907349,50.176643371582,-1.0251998901367e-05,0,-2.3126602172852e-05,1.9073486328125e-06,2.1457672119141e-06
6.3499999046326,50.676635742188,-1.0251998901367e-05,0,-2.3126602172852e-05,1.9073486328125e-06,2.1457672119141e-06
6.4000000953674,51.176628112793,-1.0251998901367e-05,0,-2.3126602172852e-05,1.9073486328125e-06,2.3841857910156e-06
6.4499998092651,51.676620483398,-1.0251998901367e-05,0,-2.3126602172852e-05,1.9073486328125e-06,2.6226043701172e-06
6.5,52.176612854004,-1.0251998901367e-05,0,-2.3126602172852e-05,1.6689300537109e-06,2.1457672119141e-06
6.5500001907349,52.676605224609,-1.0251998901367e-05,0,-2.3126602172852e-05,1.9073486328125e-06,2.1457672119141e-06
6.5999999046326,53.176597595215,-1.0251998901367e-05,0,-2.3126602172852e-05,1.9073486328125e-06,2.1457672119141e-06
6.6500000953674,53.67658996582,-1.0251998901367e-05,0,-2.3126602172852e-05,1.9073486328125e-06,2.1457672119141e-06
6.6999998092651,54.176582336426,-1.0251998901367e-05,0,-2.3126602172852e-05,1.9073486328125e-06,2.1457672119141e-06
6.75,54.676574707031,-1.0251998901367e-05,0,-2.3126602172852e-05,2.1457672119141e-06,2.1457672119141e-06
6.8000001907349,55.176567077637,-1.0251998901367e-05,0,-2.3126602172852e-05,2.3841857910156e-06,2.1457672119141e-06
6.8499999046326,55.676559448242,-1.0251998901367e-05,0,-2.3126602172852e-05,2.3841857910156e-06,2.1457672119141e-06
6.9000000953674,56.176551818848,-1.0251998901367e-05,0,-2.3126602172852e-05,2.3841857910156e-06,2.1457672119141e-06
6.9499998092651,56.676544189453,-1.0251998901367e-05,0,-2.3126602172852e-05,2.3841857910156e-06,2.1457672119141e-06
7,57.176536560059,-1.0251998901367e-05,0,-2.3126602172852e-05,2.3841857910156e-06,2.1457672119141e-06
7.0500001907349,57.676528930664,-1.0251998901367e-05,0,-2.3126602172852e-05,2.3841857910156e-06,2.6226043701172e-06
7.0999999046326,58.17652130127,-1.0251998901367e-05,0,-2.3126602172852e-05,2.3841857910156e-06,3.3378601074219e-06
7.1500000953674,58.676513671875,-1.0251998901367e-05,0,-2.3126602172852e-05,2.1457672119141e-06,3.3378601074219e-06
7.1999998092651,59.17650604248,-1.0251998901367e-05,0,-2.3126602172852e-05,2.3841857910156e-06,3.3378601074219e-06
7.25,59.676498413086,-1.0251998901367e-05,0,-2.3126602172852e-05,2.3841857910156e-06,3.3378601074219e-06
7.3000001907349,60.176490783691,-1.0251998901367e-05,0,-2.3126602172852e-05,2.3841857910156e-06,3.3378601074219e-06
7.3499999046326,60.676483154297,-1.0251998901367e-05,0,-2.3126602172852e-05,2.6226043701172e-06,3.3378601074219e-06
7.4000000953674,61.176475524902,-1.0251998901367e-05,0,-2.3126602172852e-05,2.6226043701172e-06,3.5762786865234e-06
7.4499998092651,61.676467895508,-1.0251998901367e-05,0,-2.3126602172852e-05,2.6226043701172e-06,3.814697265625e-06
7.5,62.176460266113,-1.0251998901367e-05,0,-2.3126602172852e-05,2.6226043701172e-06,4.0531158447266e-06
7.5500001907349,62.676452636719,-1.0251998901367e-05,0,-2.3126602172852e-05,2.6226043701172e-06,4.0531158447266e-06
7.5999999046326,63.176445007324,-1.0251998901367e-05,0,-2.3126602172852e-05,2.6226043701172e-06,4.0531158447266e-06
7.6500000953674,63.67643737793,-1.0251998901367e-05,0,-2.3126602172852e-05,2.6226043701172e-06,4.0531158447266e-06
7.6999998092651,64.176445007324,-1.0251998901367e-05,0,-2.3126602172852e-05,3.0994415283203e-06,3.814697265625e-06
7.75,64.676475524902,-1.0251998901367e-05,0,-2.3126602172852e-05,2.6226043701172e-06,4.2915344238281e-06
7.8000001907349,65.17650604248,-1.0251998901367e-05,0,-2.3126602172852e-05,3.5762786865234e-06,4.2915344238281e-06
7.8499999046326,65.676536560059,-1.0251998901367e-05,0,-2.3126602172852e-05,3.3378601074219e-06,4.2915344238281e-06
7.9000000953674,66.176567077637,-1.0251998901367e-05,0,-2.3126602172852e-05,3.3378601074219e-06,4.2915344238281e-06
7.9499998092651,66.676597595215,-1.0251998901367e-05,0,-2.3126602172852e-05,3.5762786865234e-06,4.2915344238281e-06
8,67.176628112793,-1.0251998901367e-05,0,-2.3126602172852e-05,3.3378601074219e-06,4.7683715820313e-06
8.0500001907349,67.676582336426,-1.0251998901367e-05,0,-2.3126602172852e-05,3.5762786865234e-06,4.7683715820313e-06
8.1000003814697,67.698081970215,-0.00025081634521484,0,-0.00023198127746582,1.215934753418e-05,4.0531158447266e-06
8.1999998092651,67.682800292969,-7.0571899414063e-05,0,-7.5817108154297e-05,5.9604644775391e-06,5.0067901611328e-06
8.3000001907349,67.678382873535,-2.6702880859375e-05,0,-3.7670135498047e-05,4.7683715820313e-06,4.2915344238281e-06
8.3999996185303,67.677101135254,-1.5020370483398e-05,0,-2.7894973754883e-05,2.8610229492188e-06,4.7683715820313e-06
8.5,67.676734924316,-1.1920928955078e-05,0,-2.5272369384766e-05,4.0531158447266e-06,5.7220458984375e-06
8.6000003814697,67.676620483398,-1.1920928955078e-05,0,-2.5272369384766e-05,4.0531158447266e-06,4.5299530029297e-06
8.6999998092651,67.676620483398,-1.1920928955078e-05,0,-2.5272369384766e-05,4.0531158447266e-06,4.5299530029297e-06
8.8000001907349,67.676620483398,-1.1920928955078e-05,0,-2.5272369384766e-05,4.0531158447266e-06,4.2915344238281e-06
8.8999996185303,67.676620483398,-1.1920928955078e-05,0,-2.5272369384766e-05,4.0531158447266e-06,4.2915344238281e-06
8.9499998092651,67.676620483398,-1.1920928955078e-05,0,-2.5272369384766e-05,4.0531158447266e-06,4.2915344238281e-06
9,67.676620483398,-1.1920928955078e-05,0,-2.5272369384766e-05,4.0531158447266e-06,4.2915344238281e-06
9.0500001907349,67.676620483398,-1.1920928955078e-05,0,-2.5272369384766e-05,4.0531158447266e-06,4.2915344238281e-06
9.1000003814697,67.676620483398,-1.1920928955078e-05,0,-2.5272369384766e-05,4.0531158447266e-06,4.2915344238281e-06
9.1999998092651,67.676620483398,-1.1920928955078e-05,0,-2.5272369384766e-05,4.0531158447266e-06,4.2915344238281e-06
9.3000001907349,67.676620483398,-1.1920928955078e-05,0,-2.5272369384766e-05,4.0531158447266e-06,4.2915344238281e-06
9.3999996185303,67.676620483398,-1.1920928955078e-05,0,-2.5272369384766e-05,4.0531158447266e-06,4.2915344238281e-06
9.5,67.676620483398,-1.1920928955078e-05,0,-2.5272369384766e-05,4.0531158447266e-06,4.2915344238281e-06
9.6000003814697,67.676620483398,-1.1920928955078e-05,0,-2.5272369384766e-05,4.0531158447266e-06,4.2915344238281e-06
9.6999998092651,67.676620483398,-1.1920928955078e-05,0,-2.5272369384766e-05,4.0531158447266e-06,4.2915344238281e-06
9.8000001907349,67.676620483398,-1.1920928955078e-05,0,-2.5272369384766e-05,4.0531158447266e-06,4.2915344238281e-06
9.8999996185303,67.676620483398,-1.1920928955078e-05,0,-2.5272369384766e-05,4.0531158447266e-06,4.2915344238281e-06
9.9499998092651,67.676620483398,-1.1920928955078e-05,0,-2.5272369384766e-05,4.0531158447266e-06,4.2915344238281e-06
10,67.676620483398,-1.1920928955078e-05,0,-2.5272369384766e-05,4.0531158447266e-06,4.2915344238281e-06
10.050000190735,67.676620483398,-1.1920928955078e-05,0,-2.5272369384766e-05,4.0531158447266e-06,4.2915344238281e-06
10.10000038147,67.676620483398,-1.1920928955078e-05,0,-2.5272369384766e-05,4.0531158447266e-06,4.2915344238281e-06
10.199999809265,67.676620483398,-1.1920928955078e-05,0,-2.5272369384766e-05,4.0531158447266e-06,4.2915344238281e-06
10.300000190735,67.676620483398,-1.1920928955078e-05,0,-2.5272369384766e-05,4.0531158447266e-06,4.2915344238281e-06
10.39999961853,67.676620483398,-1.1920928955078e-05,0,-2.5272369384766e-05,4.0531158447266e-06,4.2915344238281e-06
10.5,67.676620483398,-1.1920928955078e-05,0,-2.5272369384766e-05,4.0531158447266e-06,4.2915344238281e-06
10.60000038147,67.676620483398,-1.1920928955078e-05,0,-2.5272369384766e-05,4.0531158447266e-06,4.2915344238281e-06
10.699999809265,67.676620483398,-1.1920928955078e-05,0,-2.5272369384766e-05,4.0531158447266e-06,4.2915344238281e-06
10.800000190735,67.676620483398,-1.1920928955078e-05,0,-2.5272369384766e-05,4.0531158447266e-06,4.2915344238281e-06
10.89999961853,67.676620483398,-1.1920928955078e-05,0,-2.5272369384766e-05,4.0531158447266e-06,4.2915344238281e-06
10.949999809265,67.676620483398,-1.1920928955078e-05,0,-2.5272369384766e-05,4.0531158447266e-06,4.2915344238281e-06
11,67.676620483398,-1.1920928955078e-05,0,-2.5272369384766e-05,4.0531158447266e-06,4.2915344238281e-06
11.050000190735,67.676620483398,-1.1920928955078e-05,0,-2.5272369384766e-05,4.0531158447266e-06,4.2915344238281e-06
11.10000038147,67.676620483398,-1.1920928955078e-05,0,-2.5272369384766e-05,4.0531158447266e-06,4.2915344238281e-06
11.199999809265,67.676620483398,-1.1920928955078e-05,0,-2.5272369384766e-05,4.0531158447266e-06,4.2915344238281e-06
11.300000190735,67.676620483398,-1.1920928955078e-05,0,-2.5272369384766e-05,4.0531158447266e-06,4.2915344238281e-06
11.39999961853,67.676620483398,-1.1920928955078e-05,0,-2.5272369384766e-05,4.0531158447266e-06,4.2915344238281e-06
11.5,67.676620483398,-1.1920928955078e-05,0,-2.5272369384766e-05,4.0531158447266e-06,4.2915344238281e-06
11.60000038147,67.676620483398,-1.1920928955078e-05,0,-2.5272369384766e-05,4.0531158447266e-06,4.2915344238281e-06
11.699999809265,67.676620483398,-1.1920928955078e-05,0,-2.5272369384766e-05,4.0531158447266e-06,4.2915344238281e-06
11.800000190735,67.676620483398,-1.1920928955078e-05,0,-2.5272369384766e-05,4.0531158447266e-06,4.2915344238281e-06
11.89999961853,67.676620483398,-1.1920928955078e-05,0,-2.5272369384766e-05,4.0531158447266e-06,4.2915344238281e-06
11.949999809265,67.676620483398,-1.1920928955078e-05,0,-2.5272369384766e-05,4.0531158447266e-06,4.2915344238281e-06
12,67.676620483398,-1.1920928955078e-05,0,-2.5272369384766e-05,4.0531158447266e-06,4.2915344238281e-06
12.050000190735,67.676620483398,-1.1920928955078e-05,0,-2.5272369384766e-05,4.0531158447266e-06,4.2915344238281e-06
12.10000038147,67.676620483398,-1.1920928955078e-05,0,-2.5272369384766e-05,4.0531158447266e-06,4.2915344238281e-06
12.199999809265,67.676620483398,-1.1920928955078e-05,0,-2.5272369384766e-05,4.0531158447266e-06,4.2915344238281e-06
12.300000190735,67.676620483398,-1.1920928955078e-05,0,-2.5272369384766e-05,4.0531158447266e-06,4.2915344238281e-06
12.39999961853,67.676620483398,-1.1920928955078e-05,0,-2.5272369384766e-05,4.0531158447266e-06,4.2915344238281e-06
12.5,67.676620483398,-1.1920928955078e-05,0,-2.5272369384766e-05,4.0531158447266e-06,4.2915344238281e-06
12.60000038147,67.676620483398,-1.1920928955078e-05,0,-2.5272369384766e-05,4.0531158447266e-06,4.2915344238281e-06
12.699999809265,67.676620483398,-1.1920928955078e-05,0,-2.5272369384766e-05,4.0531158447266e-06,4.2915344238281e-06
12.800000190735,67.676620483398,-1.1920928955078e-05,0,-2.5272369384766e-05,4.0531158447266e-06,4.2915344238281e-06
12.89999961853,67.676620483398,-1.1920928955078e-05,0,-2.5272369384766e-05,4.0531158447266e-06,4.2915344238281e-06
12.949999809265,67.676620483398,-1.1920928955078e-05,0,-2.5272369384766e-05,4.0531158447266e-06,4.2915344238281e-06
13,67.676620483398,-1.1920928955078e-05,0,-2.5272369384766e-05,4.0531158447266e-06,4.2915344238281e-06
13.050000190735,67.676620483398,-1.1920928955078e-05,0,-2.5272369384766e-05,4.0531158447266e-06,4.2915344238281e-06
13.10000038147,67.676620483398,-1.1920928955078e-05,0,-2.5272369384766e-05,4.0531158447266e-06,4.2915344238281e-06
13.199999809265,67.676620483398,-1.1920928955078e-05,0,-2.5272369384766e-05,4.0531158447266e-06,4.2915344238281e-06
13.300000190735,67.676620483398,-1.1920928955078e-05,0,-2.5272369384766e-05,4.0531158447266e-06,4.2915344238281e-06
13.39999961853,67.676620483398,-1.1920928955078e-05,0,-2.5272369384766e-05,4.0531158447266e-06,4.2915344238281e-06
13.5,67.676620483398,-1.1920928955078e-05,0,-2.5272369384766e-05,4.0531158447266e-06,4.2915344238281e-06
13.60000038147,67.676620483398,-1.1920928955078e-05,0,-2.5272369384766e-05,4.0531158447266e-06,4.2915344238281e-06
13.699999809265,67.676620483398,-1.1920928955078e-05,0,-2.5272369384766e-05,4.0531158447266e-06,4.2915344238281e-06
13.800000190735,67.676620483398,-1.1920928955078e-05,0,-2.5272369384766e-05,4.0531158447266e-06,4.2915344238281e-06
13.89999961853,67.676620483398,-1.1920928955078e-05,0,-2.5272369384766e-05,4.0531158447266e-06,4.2915344238281e-06
13.949999809265,67.676620483398,-1.1920928955078e-05,0,-2.5272369384766e-05,4.0531158447266e-06,4.2915344238281e-06
14,67.676620483398,-1.1920928955078e-05,0,-2.5272369384766e-05,4.0531158447266e-06,4.2915344238281e-06
14.050000190735,67.676620483398,-1.1920928955078e-05,0,-2.5272369384766e-05,4.0531158447266e-06,4.2915344238281e-06
14.10000038147,67.676620483398,-1.1920928955078e-05,0,-2.5272369384766e-05,4.0531158447266e-06,4.2915344238281e-06
14.199999809265,67.676620483398,-1.1920928955078e-05,0,-2.5272369384766e-05,4.0531158447266e-06,4.2915344238281e-06
14.300000190735,67.676620483398,-1.1920928955078e-05,0,-2.5272369384766e-05,4.0531158447266e-06,4.2915344238281e-06
14.39999961853,67.676620483398,-1.1920928955078e-05,0,-2.5272369384766e-05,4.0531158447266e-06,4.2915344238281e-06
14.5,67.676620483398,-1.1920928955078e-05,0,-2.5272369384766e-05,4.0531158447266e-06,4.2915344238281e-06
14.60000038147,67.676620483398,-1.1920928955078e-05,0,-2.5272369384766e-05,4.0531158447266e-06,4.2915344238281e-06
14.699999809265,67.676620483398,-1.1920928955078e-05,0,-2.5272369384766e-05,4.0531158447266e-06,4.2915344238281e-06
14.800000190735,67.676620483398,-1.1920928955078e-05,0,-2.5272369384766e-05,4.0531158447266e-06,4.2915344238281e-06
14.89999961853,67.676620483398,-1.1920928955078e-05,0,-2.5272369384766e-05,4.0531158447266e-06,4.2915344238281e-06
14.949999809265,67.676620483398,-1.1920928955078e-05,0,-2.5272369384766e-05,4.0531158447266e-06,4.2915344238281e-06
15,67.676620483398,-1.1920928955078e-05,0,-2.5272369384766e-05,4.0531158447266e-06,4.2915344238281e-06
15.050000190735,67.676620483398,-1.1920928955078e-05,0,-2.5272369384766e-05,4.0531158447266e-06,4.2915344238281e-06
15.10000038147,67.676620483398,-1.1920928955078e-05,0,-2.5272369384766e-05,4.0531158447266e-06,4.2915344238281e-06
15.199999809265,67.676620483398,-1.1920928955078e-05,0,-2.5272369384766e-05,4.0531158447266e-06,4.2915344238281e-06
15.300000190735,67.676620483398,-1.1920928955078e-05,0,-2.5272369384766e-05,4.0531158447266e-06,4.2915344238281e-06
15.39999961853,67.676620483398,-1.1920928955078e-05,0,-2.5272369384766e-05,4.0531158447266e-06,4.2915344238281e-06
15.5,67.676620483398,-1.1920928955078e-05,0,-2.5272369384766e-05,4.0531158447266e-06,4.2915344238281e-06
15.60000038147,67.676620483398,-1.1920928955078e-05,0,-2.5272369384766e-05,4.0531158447266e-06,4.2915344238281e-06
15.699999809265,67.676620483398,-1.1920928955078e-05,0,-2.5272369384766e-05,4.0531158447266e-06,4.2915344238281e-06
15.800000190735,67.676620483398,-1.1920928955078e-05,0,-2.5272369384766e-05,4.0531158447266e-06,4.2915344238281e-06
15.89999961853,67.676620483398,-1.1920928955078e-05,0,-2.5272369384766e-05,4.0531158447266e-06,4.2915344238281e-06
15.949999809265,67.676620483398,-1.1920928955078e-05,0,-2.5272369384766e-05,4.0531158447266e-06,4.2915344238281e-06
16,67.676620483398,-1.1920928955078e-05,0,-2.5272369384766e-05,4.0531158447266e-06,4.2915344238281e-06
16.10000038147,67.676620483398,-1.1920928955078e-05,0,-2.5272369384766e-05,4.0531158447266e-06,4.2915344238281e-06
16.200000762939,67.676620483398,-1.1920928955078e-05,0,-2.5272369384766e-05,4.0531158447266e-06,4.2915344238281e-06
16.299999237061,67.676620483398,-1.1920928955078e-05,0,-2.5272369384766e-05,4.0531158447266e-06,4.2915344238281e-06
16.39999961853,67.676620483398,-1.1920928955078e-05,0,-2.5272369384766e-05,4.0531158447266e-06,4.2915344238281e-06
16.5,67.676620483398,-1.1920928955078e-05,0,-2.5272369384766e-05,4.0531158447266e-06,4.2915344238281e-06
16.60000038147,67.676620483398,-1.1920928955078e-05,0,-2.5272369384766e-05,4.0531158447266e-06,4.2915344238281e-06
16.700000762939,67.676620483398,-1.1920928955078e-05,0,-2.5272369384766e-05,4.0531158447266e-06,4.2915344238281e-06
16.799999237061,67.676620483398,-1.1920928955078e-05,0,-2.5272369384766e-05,4.0531158447266e-06,4.2915344238281e-06
16.85000038147,67.676620483398,-1.1920928955078e-05,0,-2.5272369384766e-05,4.0531158447266e-06,4.2915344238281e-06
16.89999961853,67.676620483398,-1.1920928955078e-05,0,-2.5272369384766e-05,4.0531158447266e-06,4.2915344238281e-06
16.950000762939,67.676620483398,-1.1920928955078e-05,0,-2.5272369384766e-05,4.0531158447266e-06,4.2915344238281e-06
17,67.676620483398,-1.1920928955078e-05,0,-2.5272369384766e-05,4.0531158447266e-06,4.2915344238281e-06
17.049999237061,67.676620483398,-1.1920928955078e-05,0,-2.5272369384766e-05,4.0531158447266e-06,4.2915344238281e-06
17.10000038147,67.676620483398,-1.1920928955078e-05,0,-2.5272369384766e-05,4.0531158447266e-06,4.2915344238281e-06
17.14999961853,67.676620483398,-1.1920928955078e-05,0,-2.5272369384766e-05,4.0531158447266e-06,4.2915344238281e-06
17.200000762939,67.676620483398,-1.1920928955078e-05,0,-2.5272369384766e-05,4.0531158447266e-06,4.2915344238281e-06
17.299999237061,67.676620483398,-1.1920928955078e-05,0,-2.5272369384766e-05,4.0531158447266e-06,4.2915344238281e-06
17.39999961853,67.676620483398,-1.1920928955078e-05,0,-2.5272369384766e-05,4.0531158447266e-06,4.2915344238281e-06
17.5,67.676620483398,-1.1920928955078e-05,0,-2.5272369384766e-05,4.0531158447266e-06,4.2915344238281e-06
17.60000038147,67.676620483398,-1.1920928955078e-05,0,-2.5272369384766e-05,4.0531158447266e-06,4.2915344238281e-06
17.700000762939,67.676620483398,-1.1920928955078e-05,0,-2.5272369384766e-05,4.0531158447266e-06,4.2915344238281e-06
17.799999237061,67.676620483398,-1.1920928955078e-05,0,-2.5272369384766e-05,4.0531158447266e-06,4.2915344238281e-06
17.85000038147,67.676620483398,-1.1920928955078e-05,0,-2.5272369384766e-05,4.0531158447266e-06,4.2915344238281e-06
17.89999961853,67.676620483398,-1.1920928955078e-05,0,-2.5272369384766e-05,4.0531158447266e-06,4.2915344238281e-06
17.950000762939,67.676620483398,-1.1920928955078e-05,0,-2.5272369384766e-05,4.0531158447266e-06,4.2915344238281e-06
18,67.676620483398,-1.1920928955078e-05,0,-2.5272369384766e-05,4.0531158447266e-06,4.2915344238281e-06
18.049999237061,67.676620483398,-1.1920928955078e-05,0,-2.5272369384766e-05,4.0531158447266e-06,4.2915344238281e-06
18.10000038147,67.676620483398,-1.1920928955078e-05,0,-2.5272369384766e-05,4.0531158447266e-06,4.2915344238281e-06
18.14999961853,67.676620483398,-1.1920928955078e-05,0,-2.5272369384766e-05,4.0531158447266e-06,4.2915344238281e-06
18.200000762939,67.676620483398,-1.1920928955078e-05,0,-2.5272369384766e-05,4.0531158447266e-06,4.2915344238281e-06
18.299999237061,67.676620483398,-1.1920928955078e-05,0,-2.5272369384766e-05,4.0531158447266e-06,4.2915344238281e-06
18.39999961853,67.676620483398,-1.1920928955078e-05,0,-2.5272369384766e-05,4.0531158447266e-06,4.2915344238281e-06
18.5,67.676620483398,-1.1920928955078e-05,0,-2.5272369384766e-05,4.0531158447266e-06,4.2915344238281e-06
18.60000038147,67.676620483398,-1.1920928955078e-05,0,-2.5272369384766e-05,4.0531158447266e-06,4.2915344238281e-06
18.700000762939,67.676620483398,-1.1920928955078e-05,0,-2.5272369384766e-05,4.0531158447266e-06,4.2915344238281e-06
18.799999237061,67.676620483398,-1.1920928955078e-05,0,-2.5272369384766e-05,4.0531158447266e-06,4.2915344238281e-06
18.85000038147,67.676620483398,-1.1920928955078e-05,0,-2.5272369384766e-05,4.0531158447266e-06,4.2915344238281e-06
18.89999961853,67.676620483398,-1.1920928955078e-05,0,-2.5272369384766e-05,4.0531158447266e-06,4.2915344238281e-06
18.950000762939,67.676620483398,-1.1920928955078e-05,0,-2.5272369384766e-05,4.0531158447266e-06,4.2915344238281e-06
19,67.676620483398,-1.1920928955078e-05,0,-2.5272369384766e-05,4.0531158447266e-06,4.2915344238281e-06
19.049999237061,67.676620483398,-1.1920928955078e-05,0,-2.5272369384766e-05,4.0531158447266e-06,4.2915344238281e-06
19.10000038147,67.676620483398,-1.1920928955078e-05,0,-2.5272369384766e-05,4.0531158447266e-06,4.2915344238281e-06
19.14999961853,67.676620483398,-1.1920928955078e-05,0,-2.5272369384766e-05,4.0531158447266e-06,4.2915344238281e-06
19.200000762939,67.676620483398,-1.1920928955078e-05,0,-2.5272369384766e-05,4.0531158447266e-06,4.2915344238281e-06
19.299999237061,67.676620483398,-1.1920928955078e-05,0,-2.5272369384766e-05,4.0531158447266e-06,4.2915344238281e-06
19.39999961853,67.676620483398,-1.1920928955078e-05,0,-2.5272369384766e-05,4.0531158447266e-06,4.2915344238281e-06
19.5,67.676620483398,-1.1920928955078e-05,0,-2.5272369384766e-05,4.0531158447266e-06,4.2915344238281e-06
19.60000038147,67.676620483398,-1.1920928955078e-05,0,-2.5272369384766e-05,4.0531158447266e-06,4.2915344238281e-06
19.700000762939,67.676620483398,-1.1920928955078e-05,0,-2.5272369384766e-05,4.0531158447266e-06,4.2915344238281e-06
19.799999237061,67.676620483398,-1.1920928955078e-05,0,-2.5272369384766e-05,4.0531158447266e-06,4.2915344238281e-06
19.85000038147,67.676620483398,-1.1920928955078e-05,0,-2.5272369384766e-05,4.0531158447266e-06,4.2915344238281e-06
19.89999961853,67.676620483398,-1.1920928955078e-05,0,-2.5272369384766e-05,4.0531158447266e-06,4.2915344238281e-06
19.950000762939,67.676620483398,-1.1920928955078e-05,0,-2.5272369384766e-05,4.0531158447266e-06,4.2915344238281e-06
20,67.676620483398,-1.1920928955078e-05,0,-2.5272369384766e-05,4.0531158447266e-06,4.2915344238281e-06
20.049999237061,67.676620483398,-1.1920928955078e-05,0,-2.5272369384766e-05,4.0531158447266e-06,4.2915344238281e-06
